{
  "page": 1,
  "per_page": 5,
  "total": 10,
  "total_pages": 2,
  "data": [
    {
      "item_number": 1,
      "item_name": "Candy",
      "quantity": 10,
      "price_per_unit": 1.5,
      "purchased": 0
    },
    {
      "item_number": 2,
      "item_name": "Soda (definitely not beer)",
      "quantity": 120,
      "price_per_unit": 0.15,
      "purchased": 0
    },
    {
      "item_number": 3,
      "item_name": "Hot Dogs",
      "quantity": 10000,
      "price_per_unit": 1,
      "purchased": 0
    },
    {
      "item_number": 4,
      "item_name": "Beer",
      "quantity": 1,
      "price_per_unit": 0.5,
      "purchased": 0
    },
    {
      "item_number": 5,
      "item_name": "watermelon (for smashing)",
      "quantity": 109,
      "price_per_unit": 3,
      "purchased": 0
    }
  ]
}
